…
``` r

cyclingdata |> 
  filter(race == "Tour de France")
#> # A tibble: 2,383 × 18
#>    race    year stage stage_id stage_num stage_type date       departure arrival
#>    <chr>  <dbl> <chr> <chr>        <int> <chr>      <date>     <chr>     <chr>  
#>  1 Tour …  1903 Stag… 1                1 Road race  1903-07-01 Montgeron Lyon   
#>  2 Tour …  1903 Stag… 2                2 Road race  1903-07-05 Lyon      Marsei…
#>  3 Tour …  1903 Stag… 3                3 Road race  1903-07-08 Marseille Toulou…
#>  4 Tour …  1903 Stag… 4                4 Road race  1903-07-12 Toulouse  Bordea…
#>  5 Tour …  1903 Stag… 5                5 Road race  1903-07-13 Bordeaux  Nantes 
#>  6 Tour …  1903 Stag… 6                6 Road race  1903-07-18 Nantes    Paris  
#>  7 Tour …  1904 Stag… 1                1 Road race  1904-07-02 Paris     Lyon   
#>  8 Tour …  1904 Stag… 2                2 Road race  1904-07-09 Lyon      Marsei…
#>  9 Tour …  1904 Stag… 3                3 Road race  1904-07-13 Marseille Toulou…
#> 10 Tour …  1904 Stag… 4                4 Road race  1904-07-17 Toulouse  Bordea…
#> # ℹ 2,373 more rows
#> # ℹ 9 more variables: parcours_type <chr>, distance <dbl>,
#> #   vertical_meters <dbl>, profile_score <dbl>, startlist_quality <dbl>,
#> #   avg_speed_winner <dbl>, won_how <chr>, win_type <chr>, km_solo <dbl>
```

``` r

cyclingdata |> 
  filter(year == 2023)
#> # A tibble: 120 × 18
#>    race    year stage stage_id stage_num stage_type date       departure arrival
#>    <chr>  <dbl> <chr> <chr>        <int> <chr>      <date>     <chr>     <chr>  
#>  1 Tour …  2023 Stag… 1                1 Road race  2023-07-01 Bilbao    Bilbao 
#>  2 Tour …  2023 Stag… 2                2 Road race  2023-07-02 Vitoria-… San Sé…
#>  3 Tour …  2023 Stag… 3                3 Road race  2023-07-03 Amorebie… Bayonne
#>  4 Tour …  2023 Stag… 4                4 Road race  2023-07-04 Dax       Nogaro 
#>  5 Tour …  2023 Stag… 5                5 Road race  2023-07-05 Pau       Laruns 
#>  6 Tour …  2023 Stag… 6                6 Road race  2023-07-06 Tarbes    Cauter…
#>  7 Tour …  2023 Stag… 7                7 Road race  2023-07-07 Mont-de-… Bordea…
#>  8 Tour …  2023 Stag… 8                8 Road race  2023-07-08 Libourne  Limoges
#>  9 Tour …  2023 Stag… 9                9 Road race  2023-07-09 Saint-Lé… Puy de…
#> 10 Tour …  2023 Stag… 10              10 Road race  2023-07-11 Vulcania  Issoire
#> # ℹ 110 more rows
#> # ℹ 9 more variables: parcours_type <chr>, distance <dbl>,
#> #   vertical_meters <dbl>, profile_score <dbl>, startlist_quality <dbl>,
#> #   avg_speed_winner <dbl>, won_how <chr>, win_type <chr>, km_solo <dbl>
```
…
